blog-boxplot-AES.R
…
#checking outliers
test<-gapminder %>% 
  select(lifeExp, gdpPercap, year, continent, country) %>%
  filter(continent=="Europe" & lifeExp<=65)
test

## # A tibble: 33 x 5
##    lifeExp gdpPercap  year continent country               
##      <dbl>     <dbl> <int> <fct>     <fct>                 
##  1    55.2     1601.  1952 Europe    Albania               
##  2    59.3     1942.  1957 Europe    Albania               
##  3    64.8     2313.  1962 Europe    Albania               
##  4    53.8      974.  1952 Europe    Bosnia and Herzegovina
##  5    58.4     1354.  1957 Europe    Bosnia and Herzegovina
##  6    61.9     1710.  1962 Europe    Bosnia and Herzegovina
##  7    64.8     2172.  1967 Europe    Bosnia and Herzegovina
##  8    59.6     2444.  1952 Europe    Bulgaria              
##  9    61.2     3119.  1952 Europe    Croatia               
## 10    64.8     4338.  1957 Europe    Croatia               
## # ... with 23 more rows
…
